<svg width="661" height="811" viewBox="0 0 661 811" fill="none" xmlns="http://www.w3.org/2000/svg">
<rect opacity="0.2" x="597" width="64" height="811" fill="#0EC261"/>
<path d="M625 396L633 405L625 414" stroke="#EEEEEE" stroke-width="2" stroke-linecap="round" stroke-linejoin="round"/>
<path d="M9 397L1 406L9 415" stroke="#EEEEEE" stroke-width="2" stroke-linecap="round" stroke-linejoin="round"/>
</svg>
